Mesh 'DM_0x84000000_0':
Max sizes cone: 3 support: 6
orientation is missing
cap --> base:
[0]: 8 ----> 17
[0]: 8 ----> 19
[0]: 9 ----> 17
[0]: 9 ----> 18
[0]: 9 ----> 23
[0]: 9 ----> 27
[0]: 10 ----> 24
[0]: 10 ----> 25
[0]: 10 ----> 27
[0]: 11 ----> 18
[0]: 11 ----> 19
[0]: 11 ----> 21
[0]: 11 ----> 22
[0]: 12 ----> 20
[0]: 12 ----> 22
[0]: 12 ----> 23
[0]: 12 ----> 24
[0]: 12 ----> 26
[0]: 12 ----> 31
[0]: 13 ----> 25
[0]: 13 ----> 26
[0]: 13 ----> 28
[0]: 13 ----> 29
[0]: 14 ----> 20
[0]: 14 ----> 21
[0]: 14 ----> 32
[0]: 15 ----> 28
[0]: 15 ----> 30
[0]: 15 ----> 31
[0]: 15 ----> 32
[0]: 16 ----> 29
[0]: 16 ----> 30
[0]: 17 ----> 0
[0]: 18 ----> 0
[0]: 18 ----> 2
[0]: 19 ----> 0
[0]: 20 ----> 1
[0]: 20 ----> 7
[0]: 21 ----> 1
[0]: 22 ----> 1
[0]: 22 ----> 2
[0]: 23 ----> 2
[0]: 23 ----> 4
[0]: 24 ----> 3
[0]: 24 ----> 4
[0]: 25 ----> 3
[0]: 26 ----> 3
[0]: 26 ----> 6
[0]: 27 ----> 4
[0]: 28 ----> 5
[0]: 28 ----> 6
[0]: 29 ----> 5
[0]: 30 ----> 5
[0]: 31 ----> 6
[0]: 31 ----> 7
[0]: 32 ----> 7
base <-- cap:
[0]: 0 <---- 17 (0)
[0]: 0 <---- 18 (0)
[0]: 0 <---- 19 (0)
[0]: 1 <---- 20 (0)
[0]: 1 <---- 21 (0)
[0]: 1 <---- 22 (0)
[0]: 2 <---- 18 (-2)
[0]: 2 <---- 23 (0)
[0]: 2 <---- 22 (-2)
[0]: 3 <---- 24 (0)
[0]: 3 <---- 25 (0)
[0]: 3 <---- 26 (0)
[0]: 4 <---- 24 (-2)
[0]: 4 <---- 23 (-2)
[0]: 4 <---- 27 (0)
[0]: 5 <---- 28 (0)
[0]: 5 <---- 29 (0)
[0]: 5 <---- 30 (0)
[0]: 6 <---- 28 (-2)
[0]: 6 <---- 31 (0)
[0]: 6 <---- 26 (-2)
[0]: 7 <---- 31 (-2)
[0]: 7 <---- 32 (0)
[0]: 7 <---- 20 (-2)
[0]: 17 <---- 8 (0)
[0]: 17 <---- 9 (0)
[0]: 18 <---- 9 (0)
[0]: 18 <---- 11 (0)
[0]: 19 <---- 11 (0)
[0]: 19 <---- 8 (0)
[0]: 20 <---- 12 (0)
[0]: 20 <---- 14 (0)
[0]: 21 <---- 14 (0)
[0]: 21 <---- 11 (0)
[0]: 22 <---- 11 (0)
[0]: 22 <---- 12 (0)
[0]: 23 <---- 9 (0)
[0]: 23 <---- 12 (0)
[0]: 24 <---- 12 (0)
[0]: 24 <---- 10 (0)
[0]: 25 <---- 10 (0)
[0]: 25 <---- 13 (0)
[0]: 26 <---- 13 (0)
[0]: 26 <---- 12 (0)
[0]: 27 <---- 9 (0)
[0]: 27 <---- 10 (0)
[0]: 28 <---- 15 (0)
[0]: 28 <---- 13 (0)
[0]: 29 <---- 13 (0)
[0]: 29 <---- 16 (0)
[0]: 30 <---- 16 (0)
[0]: 30 <---- 15 (0)
[0]: 31 <---- 15 (0)
[0]: 31 <---- 12 (0)
[0]: 32 <---- 15 (0)
[0]: 32 <---- 14 (0)
coordinates with 1 fields
  field 0 with 2 components
Process 0:
  (   8) dim  2 offset   0 0 0
  (   9) dim  2 offset   2 0.5 0
  (  10) dim  2 offset   4 1 0
  (  11) dim  2 offset   6 0 0.5
  (  12) dim  2 offset   8 0.5 0.5
  (  13) dim  2 offset  10 1 0.5
  (  14) dim  2 offset  12 0 1
  (  15) dim  2 offset  14 0.5 1
  (  16) dim  2 offset  16 1 1
Label 'marker':
[0]: 8 (1)
[0]: 9 (1)
[0]: 10 (1)
[0]: 11 (1)
[0]: 13 (1)
[0]: 14 (1)
[0]: 15 (1)
[0]: 16 (1)
[0]: 17 (1)
[0]: 19 (1)
[0]: 21 (1)
[0]: 25 (1)
[0]: 27 (1)
[0]: 29 (1)
[0]: 30 (1)
[0]: 32 (1)
[0]: 12 (-1)
[0]: 22 (-1)
[0]: 23 (-1)
[0]: 26 (-1)
[0]: 31 (-1)
Local function
Vec Object: 1 MPI processes
  type: seq
0
0.25
1
0.25
0.5
1.25
1
1.25
2
0.0625
0.125
0.0625
0.625
0.5625
0.3125
0.3125
0.625
1.0625
0.8125
0.5625
1.125
1.5625
1.5625
0.8125
1.0625
Initial guess
Vec Object: 1 MPI processes
  type: seq
0
0.25
1
0.25
0.5
1.25
1
1.25
2
0.0625
0.125
0.0625
0.625
0.5625
0.3125
0.3125
0.625
1.0625
0.8125
0.5625
1.125
1.5625
1.5625
0.8125
1.0625
L_2 Error: 1.36239e-13
Residual:
Vec Object: 1 MPI processes
  type: seq
0
0
0
0
0
0
0
0
0
0
0
0
0
0
0
0
0
0
0
0
0
0
0
0
0
Initial Residual
Vec Object: 1 MPI processes
  type: seq
0
0
0
0
0
0
0
0
0
0
0
0
0
0
0
0
0
0
0
0
0
0
0
0
0
L_2 Residual: 0
Jacobian:
Mat Object: 1 MPI processes
  type: seqaij
row 0: (0, 1)  (1, 0.166667)  (3, 0.166667)  (9, -0.666667)  (10, 0)  (11, -0.666667) 
row 1: (0, 0.166667)  (1, 2)  (2, 0.166667)  (3, 0)  (4, 0.333333)  (9, -0.666667)  (10, 0)  (11, 0)  (14, 0)  (15, -1.33333)  (16, 0)  (19, -0.666667) 
row 2: (1, 0.166667)  (2, 1)  (4, 0)  (5, 0.166667)  (15, 0)  (16, 0)  (17, -0.666667)  (18, 0)  (19, -0.666667) 
row 3: (0, 0.166667)  (1, 0)  (3, 2)  (4, 0.333333)  (6, 0.166667)  (9, 0)  (10, 0)  (11, -0.666667)  (12, 0)  (13, -0.666667)  (14, -1.33333)  (15, 0) 
row 4: (1, 0.333333)  (2, 0)  (3, 0.333333)  (4, 4)  (5, 0.333333)  (6, 0)  (7, 0.333333)  (10, 0)  (12, 0)  (13, 0)  (14, -1.33333)  (15, -1.33333)  (16, 0)  (17, 0)  (18, -1.33333)  (19, 0)  (20, 0)  (23, -1.33333)  (24, 0) 
row 5: (2, 0.166667)  (4, 0.333333)  (5, 2)  (7, 0)  (8, 0.166667)  (16, 0)  (17, -0.666667)  (18, -1.33333)  (20, 0)  (21, -0.666667)  (22, 0)  (23, 0) 
row 6: (3, 0.166667)  (4, 0)  (6, 1)  (7, 0.166667)  (12, 0)  (13, -0.666667)  (14, 0)  (23, 0)  (24, -0.666667) 
row 7: (4, 0.333333)  (5, 0)  (6, 0.166667)  (7, 2)  (8, 0.166667)  (12, 0)  (18, 0)  (20, 0)  (21, 0)  (22, -0.666667)  (23, -1.33333)  (24, -0.666667) 
row 8: (5, 0.166667)  (7, 0.166667)  (8, 1)  (20, 0)  (21, -0.666667)  (22, -0.666667) 
row 9: (0, -0.666667)  (1, -0.666667)  (3, 0)  (9, 2.66667)  (10, -1.33333)  (11, 0) 
row 10: (0, 0)  (1, 0)  (3, 0)  (4, 0)  (9, -1.33333)  (10, 5.33333)  (11, -1.33333)  (14, -1.33333)  (15, -1.33333) 
row 11: (0, -0.666667)  (1, 0)  (3, -0.666667)  (9, 0)  (10, -1.33333)  (11, 2.66667) 
row 12: (3, 0)  (4, 0)  (6, 0)  (7, 0)  (12, 5.33333)  (13, -1.33333)  (14, -1.33333)  (23, -1.33333)  (24, -1.33333) 
row 13: (3, -0.666667)  (4, 0)  (6, -0.666667)  (12, -1.33333)  (13, 2.66667)  (14, 0) 
row 14: (1, 0)  (3, -1.33333)  (4, -1.33333)  (6, 0)  (10, -1.33333)  (12, -1.33333)  (13, 0)  (14, 5.33333)  (15, 0) 
row 15: (1, -1.33333)  (2, 0)  (3, 0)  (4, -1.33333)  (10, -1.33333)  (14, 0)  (15, 5.33333)  (16, -1.33333)  (19, 0) 
row 16: (1, 0)  (2, 0)  (4, 0)  (5, 0)  (15, -1.33333)  (16, 5.33333)  (17, -1.33333)  (18, -1.33333)  (19, -1.33333) 
row 17: (2, -0.666667)  (4, 0)  (5, -0.666667)  (16, -1.33333)  (17, 2.66667)  (18, 0) 
row 18: (2, 0)  (4, -1.33333)  (5, -1.33333)  (7, 0)  (16, -1.33333)  (17, 0)  (18, 5.33333)  (20, -1.33333)  (23, 0) 
row 19: (1, -0.666667)  (2, -0.666667)  (4, 0)  (15, 0)  (16, -1.33333)  (19, 2.66667) 
row 20: (4, 0)  (5, 0)  (7, 0)  (8, 0)  (18, -1.33333)  (20, 5.33333)  (21, -1.33333)  (22, -1.33333)  (23, -1.33333) 
row 21: (5, -0.666667)  (7, 0)  (8, -0.666667)  (20, -1.33333)  (21, 2.66667)  (22, 0) 
row 22: (5, 0)  (7, -0.666667)  (8, -0.666667)  (20, -1.33333)  (21, 0)  (22, 2.66667) 
row 23: (4, -1.33333)  (5, 0)  (6, 0)  (7, -1.33333)  (12, -1.33333)  (18, 0)  (20, -1.33333)  (23, 5.33333)  (24, 0) 
row 24: (4, 0)  (6, -0.666667)  (7, -0.666667)  (12, -1.33333)  (23, 0)  (24, 2.66667) 
Residual:
Vec Object: 1 MPI processes
  type: seq
0
0
-0.166667
0
0
-0.333333
-0.166667
-0.333333
-0.333333
0.166667
0.333333
0.166667
0.333333
0.166667
0.333333
0.333333
0.333333
-0.5
0.333333
0.166667
0.333333
-0.5
-0.5
0.333333
-0.5
Au - b = Au + F(0)
Vec Object: 1 MPI processes
  type: seq
0
0
0
0
0
0
0
0
0
0
0
0
0
0
0
0
0
0
0
0
0
0
0
0
0
Linear L_2 Residual: 0
