  0 SNES Function norm 6.3332 
    0 KSP Residual norm 1.61536 
    1 KSP Residual norm 0.553251 
    2 KSP Residual norm 0.208201 
    3 KSP Residual norm 0.0459176 
    4 KSP Residual norm 0.0400899 
    5 KSP Residual norm 0.0154086 
    6 KSP Residual norm 0.0122113 
    7 KSP Residual norm 0.0046995 
    8 KSP Residual norm 0.00183816 
    9 KSP Residual norm 6.80093e-06 
   10 KSP Residual norm 2.8571e-06 
   11 KSP Residual norm 1.21649e-08 
   12 KSP Residual norm 4.194e-11 
  1 SNES Function norm 1.659e-10 
Nonlinear solve converged due to CONVERGED_FNORM_RELATIVE iterations 1
SNES Object: 1 MPI processes
  type: newtonls
  maximum iterations=50, maximum function evaluations=10000
  tolerances: relative=1e-08, absolute=1e-50, solution=1e-08
  total number of linear solver iterations=12
  total number of function evaluations=2
  SNESLineSearch Object:   1 MPI processes
    type: bt
      interpolation: cubic
      alpha=1.000000e-04
    maxstep=1.000000e+08, minlambda=1.000000e-12
    tolerances: relative=1.000000e-08, absolute=1.000000e-15, lambda=1.000000e-08
    maximum iterations=40
  KSP Object:   1 MPI processes
    type: gmres
      GMRES: restart=30, using Classical (unmodified) Gram-Schmidt Orthogonalization with no iterative refinement
      GMRES: happy breakdown tolerance 1e-30
    maximum iterations=10000, initial guess is zero
    tolerances:  relative=1e-09, absolute=1e-50, divergence=10000
    left preconditioning
    has attached null space
    using PRECONDITIONED norm type for convergence test
  PC Object:   1 MPI processes
    type: jacobi
    linear system matrix = precond matrix:
    Mat Object:     1 MPI processes
      type: seqaij
      rows=23, cols=23
      total: nonzeros=237, allocated nonzeros=237
      total number of mallocs used during MatSetValues calls =0
        using I-node routines: found 13 nodes, limit used is 5
Number of SNES iterations = 1
L_2 Error: 0.54
Solution
Vec Object: 1 MPI processes
  type: seq
0
1.5
3
-1.5
0.5
0
0
1.5
-3
-1.5
0
0.125
0.125
-1.5
0.625
-0.125
3
0.625
0.875
-3
1.125
0.125
1.5
